[
  {
    "model": "aag_api.branch",
    "pk": 0,
    "fields": {
      "name": "จัดส่ง",
      "code": "000-จัดส่ง",
      "description": "",
      "is_enabled": 1
    }
  },
  {
    "model": "aag_api.branch",
    "pk": 1,
    "fields": {
      "name": "สำนักงานใหญ่",
      "code": "001",
      "description": "",
      "is_enabled": 1
    }
  },{
    "model": "aag_api.branchsetting",
    "pk": 1,
    "fields": {
      "branch": 1,
      "code": "AA",
      "counter": 1,
      "month": 3,
      "interest": 2.00,
      "min_interest": 100
    }
  },
  {
    "model": "aag_api.ledgercategory",
    "pk": 1,
    "fields": {
      "code": "001",
      "title": "ขายทอง",
      "kind": "IN",
      "is_standard": 1,
      "is_enabled": 1
    }
  },
  {
    "model": "aag_api.ledgercategory",
    "pk": 2,
    "fields": {
      "code": "002",
      "title": "ซื้อทอง",
      "kind": "EX",
      "is_standard": 1,
      "is_enabled": 1
    }
  },
  {
    "model": "aag_api.ledgercategory",
    "pk": 3,
    "fields": {
      "code": "003",
      "title": "เปลี่ยนทอง",
      "kind": "IN",
      "is_standard": 1,
      "is_enabled": 1
    }
  },
  {
    "model": "aag_api.ledgercategory",
    "pk": 4,
    "fields": {
      "code": "004",
      "title": "ขายฝาก",
      "kind": "EX",
      "is_standard": 1,
      "is_enabled": 1
    }
  },
  {
    "model": "aag_api.ledgercategory",
    "pk": 5,
    "fields": {
      "code": "005",
      "title": "นำทองเก่าออก",
      "kind": "IN",
      "is_standard": 1,
      "is_enabled": 1
    }
  },
  {
    "model": "aag_api.ledgercategory",
    "pk": 6,
    "fields": {
      "code": "006",
      "title": "เงินออม",
      "kind": "IN",
      "is_standard": 1,
      "is_enabled": 1
    }
  },
  {
    "model": "aag_api.ledgercategory",
    "pk": 7,
    "fields": {
      "code": "007",
      "title": "ค่าดอกเบี้ย",
      "kind": "IN",
      "is_standard": 1,
      "is_enabled": 1
    }
  },
  {
    "model": "aag_api.ledgercategory",
    "pk": 8,
    "fields": {
      "code": "008",
      "title": "เพิ่มเงินต้น",
      "kind": "EX",
      "is_standard": 1,
      "is_enabled": 1
    }
  },
  {
    "model": "aag_api.ledgercategory",
    "pk": 9,
    "fields": {
      "code": "009",
      "title": "ลดเงินต้น",
      "kind": "IN",
      "is_standard": 1,
      "is_enabled": 1
    }
  },
  {
    "model": "aag_api.ledgercategory",
    "pk": 10,
    "fields": {
      "code": "010",
      "title": "เงินต้น+ดอกเบี้ยไถ่คืน",
      "kind": "IN",
      "is_standard": 1,
      "is_enabled": 1
    }
  },
  {
    "model": "aag_api.ledgercategory",
    "pk": 11,
    "fields": {
      "code": "011",
      "title": "ดอกเบี้ย",
      "kind": "IN",
      "is_standard": 1,
      "is_enabled": 1
    }
  },
  {
    "model": "aag_api.ledgercategory",
    "pk": 12,
    "fields": {
      "code": "012",
      "title": "เงินสด ณ ต้นวัน",
      "kind": "IN",
      "is_standard": 1,
      "is_enabled": 1
    }
  },
  {
    "model": "aag_api.customer",
    "pk": 1,
    "fields": {
      "name": "ลูกค้าทั่วไป",
      "code": "C000001",
      "nick_name": "",
      "is_enabled": 1,
      "birth_date": "2017-01-01",
      "created_date": "2017-11-24T00:00:00+07:00"
    }
  },
  {
    "model": "aag_api.userprofile",
    "pk": 1,
    "fields": {
      "staff_id": null,
      "role": "O",
      "branch_id": 1,
      "user_id": 1
    }
  }
   ,
   {
     "model": "aag_api.category",
     "pk": 1,
     "fields": {
       "code": "90",
       "name": "90",
       "weight": 15.2,
       "m_buy": 0.9,
       "m_sell": 0.9,
       "discount_buy": 0,
       "description": "",
       "is_enabled": 1
     }
   }   ,
   {
     "model": "aag_api.category",
     "pk": 2,
     "fields": {
       "code": "96",
       "name": "96.5",
       "weight": 15.2,
       "m_buy": 1,
       "m_sell": 1,
       "discount_buy": -200,
       "description": "",
       "is_enabled": 1
     }
   } ,
   {
     "model": "aag_api.category",
     "pk": 3,
     "fields": {
       "code": "965",
       "name": "ทองแท่ง96.5",
       "weight": 15.244,
       "m_buy": 1,
       "m_sell": 1,
       "discount_buy": -200,
       "description": "",
       "is_enabled": 1
     }
   }
  ,
  {
    "model": "aag_api.producttype",
    "pk": 1,
    "fields": {
      "code": "R",
      "name": "แหวน",
      "description": "",
      "is_enabled": 1,
      "category_id": 0
    }
  },
  {
    "model": "aag_api.producttype",
    "pk": 2,
    "fields": {
      "code": "N",
      "name": "สร้อยคอ",
      "description": "",
      "is_enabled": 1,
      "category_id": 0
    }
  },
  {
    "model": "aag_api.producttype",
    "pk": 3,
    "fields": {
      "code": "K",
      "name": "กำไล",
      "description": "",
      "is_enabled": 1,
      "category_id": 0
    }
  },
  {
    "model": "aag_api.producttype",
    "pk": 4,
    "fields": {
      "code": "NL",
      "name": "สร้อยข้อมือ",
      "description": "",
      "is_enabled": 1,
      "category_id": 0
    }
  },
  {
    "model": "aag_api.producttype",
    "pk": 5,
    "fields": {
      "code": "KR",
      "name": "คอร่ม",
      "description": "",
      "is_enabled": 1,
      "category_id": 0
    }
  },
  {
    "model": "aag_api.producttype",
    "pk": 6,
    "fields": {
      "code": "MO",
      "name": "พระ",
      "description": "",
      "is_enabled": 1,
      "category_id": 0
    }
  },
  {
    "model": "aag_api.producttype",
    "pk": 7,
    "fields": {
      "code": "E",
      "name": "ต่างหู",
      "description": "",
      "is_enabled": 1,
      "category_id": 0
    }
  },
  {
    "model": "aag_api.producttype",
    "pk": 8,
    "fields": {
      "code": "TA",
      "name": "ตะขอ",
      "description": "",
      "is_enabled": 1,
      "category_id": 0
    }
  },
  {
    "model": "aag_api.producttype",
    "pk": 9,
    "fields": {
      "code": "FR",
      "name": "กรอบพระ",
      "description": "",
      "is_enabled": 1,
      "category_id": 0
    }
  },
  {
    "model": "aag_api.producttype",
    "pk": 10,
    "fields": {
      "code": "P",
      "name": "จี้",
      "description": "",
      "is_enabled": 1,
      "category_id": 0
    }
  },
  {
    "model": "aag_api.producttype",
    "pk": 10,
    "fields": {
      "code": "P",
      "name": "จี้",
      "description": "",
      "is_enabled": 1,
      "category_id": 0
    }
  },
  {
    "model": "aag_api.producttype",
    "pk": 11,
    "fields": {
      "code": "100",
      "name": "กิมตุ้ม",
      "description": "",
      "is_enabled": 1,
      "category_id": 0
    }
  },
  {
    "model": "aag_api.producttype",
    "pk": 12,
    "fields": {
      "code": "B",
      "name": "ทองแท่ง",
      "description": "",
      "is_enabled": 1,
      "category_id": 3
    }
  },
  {
    "model": "aag_api.goldprice",
    "pk": 1,
    "fields": {
        "record_date": "2018-06-26T14:50:30.246Z",
        "gold_bar_buy": "19600.00",
        "gold_bar_sell": "19700.00",
        "gold_ornaments_buy": "19253.20",
        "gold_ornaments_sell": "20200.00"
    }
}, {
    "model": "aag_api.goldprice",
    "pk": 2,
    "fields": {
        "record_date": "2018-06-28T04:05:01.778Z",
        "gold_bar_buy": "19550.00",
        "gold_bar_sell": "19650.00",
        "gold_ornaments_buy": "19192.56",
        "gold_ornaments_sell": "20150.00"
    }
}, {
    "model": "aag_api.goldprice",
    "pk": 3,
    "fields": {
        "record_date": "2018-07-03T02:30:02.268Z",
        "gold_bar_buy": "19500.00",
        "gold_bar_sell": "19600.00",
        "gold_ornaments_buy": "19147.08",
        "gold_ornaments_sell": "20100.00"
    }
}, {
    "model": "aag_api.goldprice",
    "pk": 4,
    "fields": {
        "record_date": "2018-07-04T02:25:05.792Z",
        "gold_bar_buy": "19600.00",
        "gold_bar_sell": "19700.00",
        "gold_ornaments_buy": "19253.20",
        "gold_ornaments_sell": "20200.00"
    }
}, {
    "model": "aag_api.goldprice",
    "pk": 5,
    "fields": {
        "record_date": "2018-07-04T07:00:02.320Z",
        "gold_bar_buy": "19650.00",
        "gold_bar_sell": "19750.00",
        "gold_ornaments_buy": "19298.68",
        "gold_ornaments_sell": "20250.00"
    }
}
]