[
    {
        "model": "aag_api.systemsetting",
        "pk": 2,
        "fields": {
            "setting": "SCOR",
            "value": "10"
        }
    },
    {
        "model": "aag_api.systemsetting",
        "pk": 3,
        "fields": {
            "setting": "CUSF",
            "value": "[{\"key\":\"nick_name\",\"label\":\"\u0e0a\u0e37\u0e48\u0e2d\u0e40\u0e25\u0e48\u0e19\",\"check\":false},{\"key\":\"address\",\"label\":\"\u0e17\u0e35\u0e48\u0e2d\u0e22\u0e39\u0e48\",\"check\":false},{\"key\":\"district\",\"label\":\"\u0e15\u0e33\u0e1a\u0e25\",\"check\":false},{\"key\":\"city\",\"label\":\"\u0e2d\u0e33\u0e40\u0e20\u0e2d\",\"check\":false},{\"key\":\"province\",\"label\":\"\u0e08\u0e31\u0e07\u0e2b\u0e27\u0e31\u0e14\",\"check\":false},{\"key\":\"postal_code\",\"label\":\"\u0e23\u0e2b\u0e31\u0e2a\u0e44\u0e1b\u0e23\u0e29\u0e13\u0e35\u0e22\u0e4c\",\"check\":false},{\"key\":\"phone\",\"label\":\"\u0e40\u0e1a\u0e2d\u0e23\u0e4c\u0e42\u0e17\u0e23\",\"check\":false},{\"key\":\"birth_date\",\"label\":\"\u0e27\u0e31\u0e19\u0e40\u0e01\u0e34\u0e14\",\"check\":false},{\"key\":\"gender\",\"label\":\"\u0e40\u0e1e\u0e28\",\"check\":false,\"options\":[{\"key\":\"MA\",\"value\":\"MA\",\"text\":\"\u0e0a\u0e32\u0e22\"},{\"key\":\"FE\",\"value\":\"FE\",\"text\":\"\u0e2b\u0e0d\u0e34\u0e07\"},{\"key\":\"NA\",\"value\":\"NA\",\"text\":\"\u0e44\u0e21\u0e48\u0e23\u0e30\u0e1a\u0e38\"}]},{\"key\":\"nationality\",\"label\":\"\u0e2a\u0e31\u0e0d\u0e0a\u0e32\u0e15\u0e34\",\"check\":false},{\"key\":\"ethnicity\",\"label\":\"\u0e40\u0e0a\u0e37\u0e49\u0e2d\u0e0a\u0e32\u0e15\u0e34\",\"check\":false}]"
        }
    }
]