[
    {
        "unit": 13,
        "value": 0.125,
        "text": "1/2สลึง"
    },
    {
        "unit": 20,
        "value": 0.25,
        "text": "1สลึง"
    },
    {
        "unit": 20,
        "value": 0.50,
        "text": "2สลึง"
    },
    {
        "unit": 20,
        "value": 0.75,
        "text": "3สลึง"
    },
    {
        "unit": 50,
        "value": 1.5,
        "text": "6สลึง"
    },
    {
        "unit": 30,
        "value": 1.0,
        "text": "1บาท"
    },
    {
        "unit": 70,
        "value": 2.0,
        "text": "2บาท"
    },
    {
        "unit": 100,
        "value": 3.0,
        "text": "3บาท"
    },
    {
        "unit": 150,
        "value": 4.0,
        "text": "4บาท"
    },
    {
        "unit": 200,
        "value": 5.0,
        "text": "5บาท"
    },
    {
        "unit": 200,
        "value": 6.0,
        "text": "6บาท"
    },
    {
        "unit": 200,
        "value": 7.0,
        "text": "7บาท"
    },
    {
        "unit": 200,
        "value": 8.0,
        "text": "8บาท"
    },
    {
        "unit": 200,
        "value": 9.0,
        "text": "9บาท"
    },
    {
        "unit": 400,
        "value": 10.0,
        "text": "10บาท"
    },
    {
        "unit": 400,
        "value": 10.0,
        "text": ">10บาท",
        "type": "max"
    }
]