[{
    "model": "aag_api.branch",
    "pk": 1,
    "fields": {
        "name": "\u0e25\u0e32\u0e14\u0e01\u0e23\u0e30\u0e1a\u0e31\u0e07",
        "code": "001",
        "description": "",
        "is_enabled": 1
    }
}, {
    "model": "aag_api.branch",
    "pk": 2,
    "fields": {
        "name": "\u0e01\u0e34\u0e48\u0e07\u0e41\u0e01\u0e49\u0e27",
        "code": "002",
        "description": "",
        "is_enabled": 1
    }
}, {
    "model": "aag_api.branch",
    "pk": 3,
    "fields": {
        "name": "\u0e2d\u0e31\u0e0d\u0e18\u0e32\u0e19\u0e35",
        "code": "003",
        "description": "",
        "is_enabled": 1
    }
}, {
    "model": "aag_api.branch",
    "pk": 4,
    "fields": {
        "name": "\u0e2a\u0e30\u0e41\u0e01\u0e07\u0e32\u0e21",
        "code": "004",
        "description": "",
        "is_enabled": 1
    }
}, {
    "model": "aag_api.branch",
    "pk": 5,
    "fields": {
        "name": "\u0e2a\u0e33\u0e42\u0e23\u0e07",
        "code": "005",
        "description": "",
        "is_enabled": 1
    }
}, {
    "model": "aag_api.branch",
    "pk": 6,
    "fields": {
        "name": "\u0e1a\u0e32\u0e07\u0e1e\u0e25\u0e35",
        "code": "006",
        "description": "",
        "is_enabled": 1
    }
}, {
    "model": "aag_api.branch",
    "pk": 7,
    "fields": {
        "name": "\u0e2a\u0e34\u0e19\u0e2a\u0e32\u0e04\u0e23",
        "code": "007",
        "description": "",
        "is_enabled": 1
    }
}, {
    "model": "aag_api.branch",
    "pk": 8,
    "fields": {
        "name": "\u0e1e\u0e39\u0e19\u0e17\u0e23\u0e31\u0e1e\u0e22\u0e4c",
        "code": "008",
        "description": "",
        "is_enabled": 1
    }
}, {
    "model": "aag_api.branch",
    "pk": 9,
    "fields": {
        "name": "\u0e1b\u0e32\u0e01\u0e19\u0e49\u0e33",
        "code": "009",
        "description": "",
        "is_enabled": 1
    }
}, {
    "model": "aag_api.branch",
    "pk": 10,
    "fields": {
        "name": "\u0e1a\u0e32\u0e07\u0e1b\u0e39",
        "code": "010",
        "description": "",
        "is_enabled": 1
    }
}, {
    "model": "aag_api.branch",
    "pk": 11,
    "fields": {
        "name": "\u0e25\u0e32\u0e14\u0e01\u0e23\u0e30\u0e1a\u0e31\u0e072",
        "code": "011",
        "description": "",
        "is_enabled": 1
    }
}]