[
    {
        "model": "aag_api.leaseproduct",
        "pk": 29,
        "fields": {
            "lease": 29,
            "category": 3,
            "name": "\u0e17\u0e2d\u0e07\u0e41\u0e17\u0e48\u0e071\u0e1a\u0e32\u0e17",
            "user": 2,
            "weight": "1.000",
            "record_date": "2019-08-20T10:24:57.086Z",
            "amount": 1,
            "status": 1,
            "is_enabled": 1,
            "status_stock": "N"
        }
    },
    {
        "model": "aag_api.leaseproduct",
        "pk": 30,
        "fields": {
            "lease": 30,
            "category": 2,
            "name": "\u0e2a\u0e23\u0e49\u0e2d\u0e221\u0e1a\u0e32\u0e17",
            "user": 2,
            "weight": "1.000",
            "record_date": "2019-08-20T10:25:53.855Z",
            "amount": 1,
            "status": 1,
            "is_enabled": 1,
            "status_stock": "N"
        }
    },
    {
        "model": "aag_api.leaseproduct",
        "pk": 31,
        "fields": {
            "lease": 31,
            "category": 1,
            "name": "\u0e2a\u0e23\u0e49\u0e2d\u0e221\u0e1a\u0e32\u0e17",
            "user": 2,
            "weight": "1.000",
            "record_date": "2019-08-20T10:27:44.289Z",
            "amount": 1,
            "status": 1,
            "is_enabled": 1,
            "status_stock": "N"
        }
    },
    {
        "model": "aag_api.leaseproduct",
        "pk": 32,
        "fields": {
            "lease": 32,
            "category": 1,
            "name": "\u0e15\u0e48\u0e32\u0e07\u0e2b\u0e391\u0e01.",
            "user": 2,
            "weight": "1.000",
            "record_date": "2019-08-20T10:29:06.358Z",
            "amount": 1,
            "status": 1,
            "is_enabled": 1,
            "status_stock": "N"
        }
    }
]