[
    {
        "model": "aag_api.billstaff",
        "pk": 1,
        "fields": {
            "bill": 10,
            "record_date": "2019-08-20T10:13:30.861Z",
            "staff": 9
        }
    },
    {
        "model": "aag_api.billstaff",
        "pk": 2,
        "fields": {
            "bill": 11,
            "record_date": "2019-08-20T10:14:08.941Z",
            "staff": 11
        }
    },
    {
        "model": "aag_api.billstaff",
        "pk": 3,
        "fields": {
            "bill": 12,
            "record_date": "2019-08-20T10:15:10.138Z",
            "staff": 8
        }
    },
    {
        "model": "aag_api.billstaff",
        "pk": 4,
        "fields": {
            "bill": 13,
            "record_date": "2019-08-20T10:15:48.180Z",
            "staff": 17
        }
    },
    {
        "model": "aag_api.billstaff",
        "pk": 5,
        "fields": {
            "bill": 14,
            "record_date": "2019-08-20T10:16:44.321Z",
            "staff": 15
        }
    }
]