[
    {
        "model": "aag_api.billitem",
        "pk": 11,
        "fields": {
            "bill": 10,
            "category": 2,
            "product": 933,
            "weight": "15.200",
            "amount": 1,
            "cost": "20500.00",
            "sell": "20500.00",
            "buy": "0.00",
            "gold_price": "20500.00",
            "code_change": "SE-01190800001-1",
            "exchange": "20500.00",
            "kind": "SE",
            "status_stock": "Y",
            "product_name": "",
            "record_date": "2019-09-20T10:13:30.807Z"
        }
    },
    {
        "model": "aag_api.billitem",
        "pk": 12,
        "fields": {
            "bill": 11,
            "category": 3,
            "product": 987,
            "weight": "76.220",
            "amount": 1,
            "cost": "102500.00",
            "sell": "102500.00",
            "buy": "0.00",
            "gold_price": "20500.00",
            "code_change": "SE-01190800002-1",
            "exchange": "102500.00",
            "kind": "SE",
            "status_stock": "Y",
            "product_name": "",
            "record_date": "2019-09-20T10:14:08.878Z"
        }
    },
    {
        "model": "aag_api.billitem",
        "pk": 13,
        "fields": {
            "bill": 12,
            "category": 2,
            "product": null,
            "weight": "15.200",
            "amount": 0,
            "cost": "0.00",
            "sell": "0.00",
            "buy": "20200.00",
            "gold_price": "20500.00",
            "code_change": "BU-01190800001-1",
            "exchange": "-20200.00",
            "kind": "BU",
            "status_stock": "Y",
            "product_name": "\u0e2a\u0e23\u0e49\u0e2d\u0e221\u0e1a\u0e32\u0e17",
            "record_date": "2019-09-20T10:15:10.096Z"
        }
    },
    {
        "model": "aag_api.billitem",
        "pk": 14,
        "fields": {
            "bill": 13,
            "category": 3,
            "product": null,
            "weight": "15.244",
            "amount": 0,
            "cost": "0.00",
            "sell": "0.00",
            "buy": "20200.00",
            "gold_price": "20500.00",
            "code_change": "BU-01190800002-1",
            "exchange": "-20200.00",
            "kind": "BU",
            "status_stock": "Y",
            "product_name": "\u0e17\u0e2d\u0e07\u0e41\u0e17\u0e48\u0e071\u0e1a\u0e32\u0e17",
            "record_date": "2019-09-20T10:15:48.144Z"
        }
    },
    {
        "model": "aag_api.billitem",
        "pk": 15,
        "fields": {
            "bill": 14,
            "category": 2,
            "product": 927,
            "weight": "1.000",
            "amount": 1,
            "cost": "1349.00",
            "sell": "1349.00",
            "buy": "0.00",
            "gold_price": "20500.00",
            "code_change": "CH-01190800001-1",
            "exchange": "207.00",
            "kind": "SE",
            "status_stock": "Y",
            "product_name": "",
            "record_date": "2019-09-20T10:16:44.221Z"
        }
    },
    {
        "model": "aag_api.billitem",
        "pk": 16,
        "fields": {
            "bill": 14,
            "category": 2,
            "product": null,
            "weight": "1.000",
            "amount": 0,
            "cost": "0.00",
            "sell": "0.00",
            "buy": "1142.00",
            "gold_price": "20500.00",
            "code_change": "CH-01190800001-1",
            "exchange": "207.00",
            "kind": "BU",
            "status_stock": "Y",
            "product_name": "\u0e15\u0e48\u0e32\u0e07\u0e2b\u0e391\u0e01.",
            "record_date": "2019-09-20T10:16:44.288Z"
        }
    }
]