[{
    "model": "aag_api.goldprice",
    "pk": 7,
    "fields": {
        "record_date": "2019-08-06T05:36:25.643Z",
        "gold_bar_buy": "20400.00",
        "gold_bar_sell": "20500.00",
        "gold_ornaments_buy": "20026.36",
        "gold_ornaments_sell": "0.00"
    }
}]