[{
    "model": "aag_api.producttype",
    "pk": 1,
    "fields": {
        "code": "R",
        "name": "\u0e41\u0e2b\u0e27\u0e19",
        "description": "",
        "category_id": 0,
        "is_enabled": 1
    }
}, {
    "model": "aag_api.producttype",
    "pk": 2,
    "fields": {
        "code": "N",
        "name": "\u0e2a\u0e23\u0e49\u0e2d\u0e22\u0e04\u0e2d",
        "description": "",
        "category_id": 0,
        "is_enabled": 1
    }
}, {
    "model": "aag_api.producttype",
    "pk": 3,
    "fields": {
        "code": "K",
        "name": "\u0e01\u0e33\u0e44\u0e25",
        "description": "",
        "category_id": 0,
        "is_enabled": 1
    }
}, {
    "model": "aag_api.producttype",
    "pk": 4,
    "fields": {
        "code": "NL",
        "name": "\u0e2a\u0e23\u0e49\u0e2d\u0e22\u0e02\u0e49\u0e2d\u0e21\u0e37\u0e2d",
        "description": "",
        "category_id": 0,
        "is_enabled": 1
    }
}, {
    "model": "aag_api.producttype",
    "pk": 5,
    "fields": {
        "code": "KR",
        "name": "\u0e04\u0e2d\u0e23\u0e48\u0e21",
        "description": "",
        "category_id": 0,
        "is_enabled": 1
    }
}, {
    "model": "aag_api.producttype",
    "pk": 6,
    "fields": {
        "code": "MO",
        "name": "\u0e1e\u0e23\u0e30",
        "description": "",
        "category_id": 0,
        "is_enabled": 1
    }
}, {
    "model": "aag_api.producttype",
    "pk": 7,
    "fields": {
        "code": "E",
        "name": "\u0e15\u0e48\u0e32\u0e07\u0e2b\u0e39",
        "description": "",
        "category_id": 0,
        "is_enabled": 1
    }
}, {
    "model": "aag_api.producttype",
    "pk": 8,
    "fields": {
        "code": "TA",
        "name": "\u0e15\u0e30\u0e02\u0e2d",
        "description": "",
        "category_id": 0,
        "is_enabled": 1
    }
}, {
    "model": "aag_api.producttype",
    "pk": 9,
    "fields": {
        "code": "FR",
        "name": "\u0e01\u0e23\u0e2d\u0e1a\u0e1e\u0e23\u0e30",
        "description": "",
        "category_id": 0,
        "is_enabled": 1
    }
}, {
    "model": "aag_api.producttype",
    "pk": 10,
    "fields": {
        "code": "P",
        "name": "\u0e08\u0e35\u0e49",
        "description": "",
        "category_id": 0,
        "is_enabled": 1
    }
}, {
    "model": "aag_api.producttype",
    "pk": 11,
    "fields": {
        "code": "100",
        "name": "\u0e01\u0e34\u0e21\u0e15\u0e38\u0e49\u0e21",
        "description": "",
        "category_id": 0,
        "is_enabled": 1
    }
}, {
    "model": "aag_api.producttype",
    "pk": 12,
    "fields": {
        "code": "B",
        "name": "\u0e17\u0e2d\u0e07\u0e41\u0e17\u0e48\u0e07",
        "description": "",
        "category_id": 3,
        "is_enabled": 1
    }
}]