[{
    "model": "aag_api.staff",
    "pk": 1,
    "fields": {
        "name": "\u0e19\u0e32\u0e07\u0e2a\u0e32\u0e27\u0e2a\u0e38\u0e20\u0e32\u0e1e\u0e23 \u0e20\u0e39\u0e04\u0e07\u0e19\u0e49\u0e33",
        "code": "E001",
        "branch": 5,
        "phone": "090-2188142",
        "address": "",
        "is_enabled": 1
    }
}, {
    "model": "aag_api.staff",
    "pk": 2,
    "fields": {
        "name": "\u0e19\u0e32\u0e07\u0e2a\u0e32\u0e27\u0e21\u0e31\u0e15\u0e15\u0e34\u0e01\u0e32 \u0e40\u0e01\u0e15\u0e38\u0e21\u0e13\u0e35",
        "code": "E002",
        "branch": 5,
        "phone": "062-1018226",
        "address": "",
        "is_enabled": 1
    }
}, {
    "model": "aag_api.staff",
    "pk": 3,
    "fields": {
        "name": "\u0e19\u0e32\u0e07\u0e2a\u0e32\u0e27\u0e19\u0e07\u0e25\u0e31\u0e01\u0e29\u0e13\u0e4c \u0e1b\u0e23\u0e30\u0e17\u0e38\u0e21\u0e27\u0e07\u0e28\u0e4c",
        "code": "E003",
        "branch": 5,
        "phone": "092-8491938",
        "address": "",
        "is_enabled": 1
    }
}, {
    "model": "aag_api.staff",
    "pk": 4,
    "fields": {
        "name": "\u0e19\u0e32\u0e07\u0e2a\u0e32\u0e27\u0e2d\u0e31\u0e0d\u0e0a\u0e34\u0e29\u0e10\u0e32 \u0e0a\u0e49\u0e32\u0e07\u0e14\u0e35",
        "code": "E004",
        "branch": 5,
        "phone": "092-7323589",
        "address": "",
        "is_enabled": 1
    }
}, {
    "model": "aag_api.staff",
    "pk": 5,
    "fields": {
        "name": "\u0e19\u0e32\u0e07\u0e2a\u0e32\u0e27\u0e2a\u0e38\u0e18\u0e32\u0e17\u0e34\u0e1e\u0e22\u0e4c \u0e22\u0e28\u0e1b\u0e23\u0e30\u0e2a\u0e07\u0e04\u0e4c",
        "code": "E005",
        "branch": 5,
        "phone": "099-0105446",
        "address": "",
        "is_enabled": 1
    }
}, {
    "model": "aag_api.staff",
    "pk": 6,
    "fields": {
        "name": "\u0e19\u0e32\u0e07\u0e2a\u0e32\u0e27\u0e2a\u0e38\u0e27\u0e19\u0e31\u0e19\u0e17\u0e4c \u0e1e\u0e23\u0e21\u0e04\u0e33\u0e0b\u0e32\u0e27",
        "code": "E006",
        "branch": 5,
        "phone": "099-4942730",
        "address": "",
        "is_enabled": 1
    }
}, {
    "model": "aag_api.staff",
    "pk": 8,
    "fields": {
        "name": "\u0e19\u0e32\u0e22\u0e27\u0e35\u0e23\u0e40\u0e0a\u0e29\u0e10\u0e4c \u0e2d\u0e32\u0e23\u0e35\u0e0a\u0e34\u0e19\u0e23\u0e31\u0e01\u0e29\u0e4c",
        "code": "A001",
        "branch": 1,
        "phone": "098-9046591",
        "address": "",
        "is_enabled": 1
    }
}, {
    "model": "aag_api.staff",
    "pk": 9,
    "fields": {
        "name": "\u0e19\u0e32\u0e07\u0e2a\u0e32\u0e27\u0e2a\u0e38\u0e13\u0e34\u0e0a\u0e32 \u0e1a\u0e38\u0e0d\u0e2a\u0e27\u0e19",
        "code": "A002",
        "branch": 1,
        "phone": "097-2387140",
        "address": "",
        "is_enabled": 1
    }
}, {
    "model": "aag_api.staff",
    "pk": 10,
    "fields": {
        "name": "\u0e19\u0e32\u0e07\u0e2a\u0e32\u0e27\u0e2a\u0e21\u0e43\u0e08 \u0e15\u0e31\u0e19\u0e2b\u0e22\u0e35",
        "code": "A003",
        "branch": 1,
        "phone": "088-7949551",
        "address": "",
        "is_enabled": 1
    }
}, {
    "model": "aag_api.staff",
    "pk": 11,
    "fields": {
        "name": "\u0e19\u0e32\u0e07\u0e2a\u0e32\u0e27\u0e1e\u0e27\u0e07\u0e1c\u0e01\u0e32  \u0e07\u0e32\u0e21\u0e2a\u0e32\u0e22",
        "code": "A004",
        "branch": 1,
        "phone": "098-4269934",
        "address": "",
        "is_enabled": 1
    }
}, {
    "model": "aag_api.staff",
    "pk": 12,
    "fields": {
        "name": "\u0e19\u0e32\u0e07\u0e2a\u0e32\u0e27\u0e23\u0e38\u0e48\u0e07\u0e17\u0e34\u0e1e\u0e22\u0e4c  \u0e1a\u0e23\u0e23\u0e17\u0e23\u0e07\u0e01\u0e34\u0e08",
        "code": "A005",
        "branch": 1,
        "phone": "095-7954469",
        "address": "",
        "is_enabled": 1
    }
}, {
    "model": "aag_api.staff",
    "pk": 13,
    "fields": {
        "name": "\u0e19\u0e32\u0e07\u0e2a\u0e32\u0e27\u0e2d\u0e19\u0e38\u0e2a\u0e2a\u0e23\u0e32 \u0e40\u0e08\u0e23\u0e34\u0e0d\u0e2a\u0e38\u0e02",
        "code": "A006",
        "branch": 1,
        "phone": "092-6248671",
        "address": "",
        "is_enabled": 1
    }
}, {
    "model": "aag_api.staff",
    "pk": 14,
    "fields": {
        "name": "\u0e19\u0e32\u0e07\u0e2a\u0e32\u0e27\u0e1e\u0e19\u0e34\u0e15\u0e1e\u0e34\u0e0a\u0e32 \u0e40\u0e01\u0e29\u0e2b\u0e2d\u0e21",
        "code": "A007",
        "branch": 1,
        "phone": "094-4315151",
        "address": "",
        "is_enabled": 1
    }
}, {
    "model": "aag_api.staff",
    "pk": 15,
    "fields": {
        "name": "\u0e19\u0e32\u0e07\u0e2a\u0e32\u0e27\u0e28\u0e14\u0e32\u0e17\u0e34\u0e1e\u0e22\u0e4c \u0e02\u0e27\u0e31\u0e0d\u0e01\u0e34\u0e08\u0e1b\u0e0e\u0e34\u0e22\u0e38\u0e17\u0e18\u0e4c",
        "code": "A008",
        "branch": 1,
        "phone": "062-0358714",
        "address": "",
        "is_enabled": 1
    }
}, {
    "model": "aag_api.staff",
    "pk": 16,
    "fields": {
        "name": "\u0e19\u0e32\u0e07\u0e2a\u0e32\u0e27\u0e2d\u0e21\u0e23\u0e23\u0e31\u0e15\u0e19\u0e4c \u0e2a\u0e38\u0e27\u0e23\u0e23\u0e13\u0e27\u0e07\u0e29\u0e4c",
        "code": "A009",
        "branch": 1,
        "phone": "094-6264594",
        "address": "",
        "is_enabled": 1
    }
}, {
    "model": "aag_api.staff",
    "pk": 17,
    "fields": {
        "name": "\u0e19\u0e32\u0e07\u0e2a\u0e32\u0e27\u0e18\u0e19\u0e32\u0e1e\u0e23 \u0e41\u0e1b\u0e49\u0e19\u0e42\u0e1e\u0e18\u0e34\u0e4c",
        "code": "A010",
        "branch": 1,
        "phone": "099-1519595",
        "address": "",
        "is_enabled": 1
    }
}, {
    "model": "aag_api.staff",
    "pk": 18,
    "fields": {
        "name": "\u0e19\u0e32\u0e07\u0e2a\u0e32\u0e27\u0e19\u0e1e\u0e23\u0e31\u0e15\u0e19\u0e4c \u0e1e\u0e23\u0e28\u0e34\u0e23\u0e34",
        "code": "B001",
        "branch": 2,
        "phone": "092-8402533",
        "address": "",
        "is_enabled": 1
    }
}, {
    "model": "aag_api.staff",
    "pk": 19,
    "fields": {
        "name": "\u0e19\u0e32\u0e07\u0e2a\u0e32\u0e27\u0e0a\u0e0e\u0e32\u0e23\u0e31\u0e15\u0e19\u0e4c \u0e41\u0e01\u0e49\u0e27\u0e23\u0e31\u0e15\u0e19\u0e4c",
        "code": "B002",
        "branch": 2,
        "phone": "062-4901216",
        "address": "",
        "is_enabled": 1
    }
}, {
    "model": "aag_api.staff",
    "pk": 20,
    "fields": {
        "name": "\u0e19\u0e32\u0e07\u0e2a\u0e32\u0e27\u0e2d\u0e23\u0e2d\u0e38\u0e21\u0e32 \u0e42\u0e1e\u0e18\u0e34\u0e4c\u0e2a\u0e38\u0e02",
        "code": "B003",
        "branch": 2,
        "phone": "063-4908880",
        "address": "",
        "is_enabled": 1
    }
}, {
    "model": "aag_api.staff",
    "pk": 21,
    "fields": {
        "name": "\u0e19\u0e32\u0e07\u0e2a\u0e32\u0e27\u0e23\u0e38\u0e49\u0e07\u0e25\u0e32\u0e27\u0e31\u0e25\u0e22\u0e4c \u0e1a\u0e32\u0e25\u0e40\u0e22\u0e47\u0e19",
        "code": "C001",
        "branch": 3,
        "phone": "098-4355099",
        "address": "",
        "is_enabled": 1
    }
}, {
    "model": "aag_api.staff",
    "pk": 22,
    "fields": {
        "name": "\u0e19\u0e32\u0e07\u0e2a\u0e32\u0e27\u0e23\u0e31\u0e15\u0e19\u0e32\u0e20\u0e23\u0e13\u0e4c \u0e28\u0e23\u0e35\u0e1a\u0e31\u0e27\u0e07\u0e32\u0e21",
        "code": "C002",
        "branch": 3,
        "phone": "093-0457872",
        "address": "",
        "is_enabled": 1
    }
}, {
    "model": "aag_api.staff",
    "pk": 23,
    "fields": {
        "name": "\u0e19\u0e32\u0e07\u0e2a\u0e32\u0e27\u0e23\u0e38\u0e48\u0e07\u0e19\u0e20\u0e32 \u0e1a\u0e38\u0e0d\u0e18\u0e23\u0e23\u0e21\u0e27\u0e31\u0e15\u0e23",
        "code": "C003",
        "branch": 3,
        "phone": "095-5630282",
        "address": "",
        "is_enabled": 1
    }
}, {
    "model": "aag_api.staff",
    "pk": 24,
    "fields": {
        "name": "\u0e19\u0e32\u0e22\u0e2a\u0e38\u0e20\u0e40\u0e27\u0e0a \u0e2a\u0e21\u0e1e\u0e23\u0e30\u0e44\u0e15\u0e23",
        "code": "C004",
        "branch": 3,
        "phone": "094-7812435",
        "address": "",
        "is_enabled": 1
    }
}, {
    "model": "aag_api.staff",
    "pk": 25,
    "fields": {
        "name": "\u0e19\u0e32\u0e22\u0e2d\u0e18\u0e34\u0e1e\u0e31\u0e0a\u0e23\u0e4c \u0e2a\u0e38\u0e23\u0e19\u0e31\u0e19\u0e17\u0e4c\u0e19\u0e34\u0e18\u0e34\u0e42\u0e0a\u0e04",
        "code": "D001",
        "branch": 4,
        "phone": "086-5508883",
        "address": "",
        "is_enabled": 1
    }
}, {
    "model": "aag_api.staff",
    "pk": 26,
    "fields": {
        "name": "\u0e19\u0e32\u0e07\u0e2a\u0e32\u0e27\u0e27\u0e19\u0e34\u0e14\u0e32 \u0e41\u0e01\u0e49\u0e27\u0e43\u0e2b\u0e21\u0e48",
        "code": "D002",
        "branch": 4,
        "phone": "094-4038201",
        "address": "",
        "is_enabled": 1
    }
}, {
    "model": "aag_api.staff",
    "pk": 27,
    "fields": {
        "name": "\u0e19\u0e32\u0e07\u0e40\u0e01\u0e28\u0e01\u0e21\u0e25 \u0e44\u0e0a\u0e22\u0e1a\u0e38\u0e23\u0e35",
        "code": "D003",
        "branch": 4,
        "phone": "083-6756847",
        "address": "",
        "is_enabled": 1
    }
}, {
    "model": "aag_api.staff",
    "pk": 28,
    "fields": {
        "name": "\u0e19\u0e32\u0e07\u0e2a\u0e32\u0e27\u0e19\u0e31\u0e17\u0e18\u0e21\u0e19\u0e15\u0e4c \u0e1a\u0e38\u0e0d\u0e23\u0e2d\u0e14",
        "code": "D004",
        "branch": 4,
        "phone": "093-3659238",
        "address": "",
        "is_enabled": 1
    }
}, {
    "model": "aag_api.staff",
    "pk": 29,
    "fields": {
        "name": "\u0e19\u0e32\u0e07\u0e2a\u0e32\u0e27\u0e19\u0e34\u0e48\u0e21\u0e19\u0e27\u0e25 \u0e40\u0e1b\u0e23\u0e21\u0e01\u0e21\u0e25",
        "code": "D005",
        "branch": 4,
        "phone": "064-0754947",
        "address": "",
        "is_enabled": 1
    }
}, {
    "model": "aag_api.staff",
    "pk": 30,
    "fields": {
        "name": "\u0e19\u0e32\u0e07\u0e2a\u0e32\u0e27\u0e1e\u0e34\u0e44\u0e23\u0e23\u0e31\u0e15\u0e19\u0e4c \u0e02\u0e31\u0e19\u0e18\u0e4c\u0e21\u0e39\u0e25",
        "code": "D006",
        "branch": 4,
        "phone": "062-5791470",
        "address": "",
        "is_enabled": 1
    }
}, {
    "model": "aag_api.staff",
    "pk": 31,
    "fields": {
        "name": "\u0e19\u0e32\u0e07\u0e2a\u0e32\u0e27\u0e28\u0e34\u0e27\u0e1e\u0e23 \u0e19\u0e49\u0e2d\u0e22\u0e2d\u0e22\u0e39\u0e48\u0e19\u0e34\u0e14",
        "code": "D007",
        "branch": 4,
        "phone": "097-3525473",
        "address": "",
        "is_enabled": 1
    }
}, {
    "model": "aag_api.staff",
    "pk": 32,
    "fields": {
        "name": "\u0e19\u0e32\u0e07\u0e2a\u0e32\u0e27\u0e23\u0e31\u0e15\u0e19\u0e32  \u0e2a\u0e34\u0e07\u0e2b\u0e4c\u0e04\u0e32\u0e21",
        "code": "D008",
        "branch": 4,
        "phone": "091-7797481",
        "address": "",
        "is_enabled": 1
    }
}, {
    "model": "aag_api.staff",
    "pk": 33,
    "fields": {
        "name": "\u0e19\u0e32\u0e07\u0e2a\u0e32\u0e27\u0e1e\u0e31\u0e0a\u0e23\u0e35 \u0e21\u0e32\u0e15\u0e35\u0e2a\u0e27\u0e32\u0e25\u0e32",
        "code": "D009",
        "branch": 4,
        "phone": "092-5199759",
        "address": "",
        "is_enabled": 1
    }
}, {
    "model": "aag_api.staff",
    "pk": 34,
    "fields": {
        "name": "\u0e19\u0e32\u0e07\u0e2a\u0e32\u0e27\u0e19\u0e24\u0e21\u0e25 \u0e40\u0e2a\u0e23\u0e47\u0e08\u0e18\u0e38\u0e23\u0e30",
        "code": "F001",
        "branch": 6,
        "phone": "090-2136995",
        "address": "",
        "is_enabled": 1
    }
}, {
    "model": "aag_api.staff",
    "pk": 35,
    "fields": {
        "name": "\u0e19\u0e32\u0e07\u0e2a\u0e32\u0e27\u0e24\u0e17\u0e31\u0e22\u0e23\u0e31\u0e15\u0e19\u0e4c  \u0e42\u0e1e\u0e18\u0e34\u0e4c\u0e17\u0e2d\u0e07",
        "code": "F002",
        "branch": 6,
        "phone": "080-9570688",
        "address": "",
        "is_enabled": 1
    }
}, {
    "model": "aag_api.staff",
    "pk": 36,
    "fields": {
        "name": "\u0e19\u0e32\u0e07\u0e2a\u0e32\u0e27\u0e19\u0e27\u0e25\u0e08\u0e31\u0e19\u0e17\u0e23\u0e4c \u0e2a\u0e38\u0e02\u0e2a\u0e1a\u0e32\u0e22",
        "code": "F003",
        "branch": 6,
        "phone": "065-5480726",
        "address": "",
        "is_enabled": 1
    }
}, {
    "model": "aag_api.staff",
    "pk": 37,
    "fields": {
        "name": "\u0e19\u0e32\u0e07\u0e2a\u0e32\u0e27\u0e17\u0e34\u0e1e\u0e22\u0e4c\u0e23\u0e31\u0e15\u0e19\u0e4c \u0e41\u0e22\u0e49\u0e21\u0e1e\u0e34\u0e19\u0e34\u0e08",
        "code": "G001",
        "branch": 7,
        "phone": "092-5758125",
        "address": "",
        "is_enabled": 1
    }
}, {
    "model": "aag_api.staff",
    "pk": 38,
    "fields": {
        "name": "\u0e19\u0e32\u0e22\u0e2a\u0e2b\u0e23\u0e31\u0e10 \u0e40\u0e0a\u0e34\u0e14\u0e0a\u0e39\u0e21\u0e32\u0e25\u0e31\u0e22\u0e01\u0e34\u0e08",
        "code": "G002",
        "branch": 7,
        "phone": "062-7466980",
        "address": "",
        "is_enabled": 1
    }
}, {
    "model": "aag_api.staff",
    "pk": 39,
    "fields": {
        "name": "\u0e19\u0e32\u0e07\u0e2a\u0e32\u0e27\u0e19\u0e20\u0e40\u0e01\u0e15\u0e19\u0e4c \u0e21\u0e30\u0e01\u0e39\u0e25",
        "code": "G003",
        "branch": 7,
        "phone": "080-0238635",
        "address": "",
        "is_enabled": 1
    }
}, {
    "model": "aag_api.staff",
    "pk": 40,
    "fields": {
        "name": "\u0e19\u0e32\u0e07\u0e2a\u0e32\u0e27\u0e2a\u0e38\u0e17\u0e18\u0e34\u0e14\u0e32 \u0e23\u0e31\u0e15\u0e19\u0e30",
        "code": "G004",
        "branch": 7,
        "phone": "082-3519761",
        "address": "",
        "is_enabled": 1
    }
}, {
    "model": "aag_api.staff",
    "pk": 41,
    "fields": {
        "name": "\u0e19\u0e32\u0e07\u0e28\u0e28\u0e18\u0e23 \u0e40\u0e2d\u0e35\u0e48\u0e22\u0e21\u0e2a\u0e2d\u0e32\u0e14",
        "code": "G005",
        "branch": 7,
        "phone": "064-8538405",
        "address": "",
        "is_enabled": 1
    }
}, {
    "model": "aag_api.staff",
    "pk": 42,
    "fields": {
        "name": "\u0e19\u0e32\u0e07\u0e2a\u0e32\u0e27\u0e01\u0e32\u0e19\u0e14\u0e32 \u0e41\u0e1a\u0e19\u0e22\u0e30\u0e17\u0e31\u0e14",
        "code": "G006",
        "branch": 7,
        "phone": "094-6269593",
        "address": "",
        "is_enabled": 1
    }
}, {
    "model": "aag_api.staff",
    "pk": 43,
    "fields": {
        "name": "\u0e19\u0e32\u0e07\u0e2a\u0e32\u0e27\u0e2a\u0e32\u0e27\u0e34\u0e15\u0e23\u0e35 \u0e1b\u0e23\u0e35\u0e0a\u0e32",
        "code": "H001",
        "branch": 8,
        "phone": "061-6539997",
        "address": "",
        "is_enabled": 1
    }
}, {
    "model": "aag_api.staff",
    "pk": 44,
    "fields": {
        "name": "\u0e19\u0e32\u0e07\u0e2a\u0e32\u0e27\u0e10\u0e34\u0e15\u0e34\u0e20\u0e32 \u0e42\u0e0a\u0e04\u0e28\u0e34\u0e23\u0e34\u0e27\u0e34\u0e23\u0e38\u0e2c\u0e2b\u0e4c",
        "code": "H002",
        "branch": 8,
        "phone": "080-1691149",
        "address": "",
        "is_enabled": 1
    }
}, {
    "model": "aag_api.staff",
    "pk": 45,
    "fields": {
        "name": "\u0e19\u0e32\u0e07\u0e2a\u0e32\u0e27\u0e18\u0e19\u0e38\u0e15\u0e23\u0e32 \u0e27\u0e07\u0e29\u0e4c\u0e19\u0e32\u0e08",
        "code": "H003",
        "branch": 8,
        "phone": "063-9142032",
        "address": "",
        "is_enabled": 1
    }
}, {
    "model": "aag_api.staff",
    "pk": 46,
    "fields": {
        "name": "\u0e19\u0e32\u0e07\u0e2a\u0e32\u0e27\u0e2a\u0e34\u0e23\u0e34\u0e27\u0e23\u0e23\u0e13 \u0e04\u0e25\u0e49\u0e32\u0e22\u0e2a\u0e35",
        "code": "H004",
        "branch": 8,
        "phone": "098-8541693",
        "address": "",
        "is_enabled": 1
    }
}, {
    "model": "aag_api.staff",
    "pk": 47,
    "fields": {
        "name": "\u0e19\u0e32\u0e07\u0e2a\u0e32\u0e27\u0e23\u0e08\u0e19\u0e32 \u0e2a\u0e32\u0e2a\u0e35\u0e17\u0e30",
        "code": "H005",
        "branch": 8,
        "phone": "082-1167274",
        "address": "",
        "is_enabled": 1
    }
}, {
    "model": "aag_api.staff",
    "pk": 48,
    "fields": {
        "name": "\u0e19\u0e32\u0e07\u0e2a\u0e32\u0e27\u0e17\u0e31\u0e19\u0e11\u0e34\u0e01\u0e32 \u0e04\u0e33\u0e04\u0e39\u0e13",
        "code": "I001",
        "branch": 9,
        "phone": "091-7696526",
        "address": "",
        "is_enabled": 1
    }
}, {
    "model": "aag_api.staff",
    "pk": 49,
    "fields": {
        "name": "\u0e19\u0e32\u0e07\u0e2a\u0e32\u0e27\u0e1b\u0e23\u0e34\u0e09\u0e31\u0e15\u0e23 \u0e41\u0e01\u0e49\u0e27\u0e2a\u0e27\u0e23\u0e23\u0e04\u0e4c",
        "code": "I002",
        "branch": 9,
        "phone": "086-9849344",
        "address": "",
        "is_enabled": 1
    }
}, {
    "model": "aag_api.staff",
    "pk": 50,
    "fields": {
        "name": "\u0e19\u0e32\u0e07\u0e2a\u0e32\u0e27\u0e19\u0e27\u0e1e\u0e23 \u0e1e\u0e38\u0e48\u0e21\u0e2a\u0e32\u0e25\u0e35",
        "code": "I003",
        "branch": 9,
        "phone": "094-4489195",
        "address": "",
        "is_enabled": 1
    }
}, {
    "model": "aag_api.staff",
    "pk": 51,
    "fields": {
        "name": "\u0e19\u0e32\u0e07\u0e2a\u0e32\u0e27\u0e14\u0e23\u0e38\u0e13\u0e35 \u0e27\u0e07\u0e29\u0e4c\u0e0a\u0e32\u0e27\u0e19\u0e32",
        "code": "I004",
        "branch": 9,
        "phone": "091-8878106",
        "address": "",
        "is_enabled": 1
    }
}, {
    "model": "aag_api.staff",
    "pk": 52,
    "fields": {
        "name": "\u0e19\u0e32\u0e07\u0e2a\u0e32\u0e27\u0e28\u0e23\u0e34\u0e19\u0e23\u0e31\u0e15\u0e19\u0e4c \u0e08\u0e31\u0e19\u0e17\u0e23",
        "code": "I005",
        "branch": 9,
        "phone": "",
        "address": "",
        "is_enabled": 1
    }
}, {
    "model": "aag_api.staff",
    "pk": 53,
    "fields": {
        "name": "\u0e19\u0e32\u0e07\u0e2a\u0e32\u0e27\u0e08\u0e38\u0e11\u0e32\u0e21\u0e32\u0e28 \u0e1e\u0e23\u0e2b\u0e21\u0e1a\u0e38\u0e15\u0e23",
        "code": "J001",
        "branch": 10,
        "phone": "099-4502490",
        "address": "",
        "is_enabled": 1
    }
}, {
    "model": "aag_api.staff",
    "pk": 54,
    "fields": {
        "name": "\u0e19\u0e32\u0e07\u0e2a\u0e32\u0e27\u0e1e\u0e19\u0e34\u0e14\u0e32 \u0e41\u0e01\u0e49\u0e27\u0e1e\u0e31\u0e19\u0e21\u0e32",
        "code": "J002",
        "branch": 10,
        "phone": "",
        "address": "",
        "is_enabled": 1
    }
}, {
    "model": "aag_api.staff",
    "pk": 55,
    "fields": {
        "name": "\u0e19\u0e32\u0e07\u0e2a\u0e32\u0e27\u0e40\u0e1a\u0e0d\u0e0d\u0e32\u0e20\u0e32 \u0e2a\u0e21\u0e32\u0e17\u0e2d\u0e07",
        "code": "J003",
        "branch": 10,
        "phone": "092-8535809",
        "address": "",
        "is_enabled": 1
    }
}, {
    "model": "aag_api.staff",
    "pk": 56,
    "fields": {
        "name": "\u0e19\u0e32\u0e07\u0e2a\u0e32\u0e27\u0e27\u0e19\u0e34\u0e14\u0e32 \u0e2a\u0e32\u0e22\u0e0a\u0e39",
        "code": "J004",
        "branch": 10,
        "phone": "090-2327425",
        "address": "",
        "is_enabled": 1
    }
}, {
    "model": "aag_api.staff",
    "pk": 57,
    "fields": {
        "name": "\u0e19\u0e32\u0e07\u0e2a\u0e32\u0e27\u0e1b\u0e23\u0e30\u0e01\u0e32\u0e22\u0e01\u0e32\u0e0d\u0e08\u0e19\u0e4c \u0e04\u0e33\u0e1c\u0e32\u0e22",
        "code": "K001",
        "branch": 11,
        "phone": "085-6856018",
        "address": "",
        "is_enabled": 1
    }
}, {
    "model": "aag_api.staff",
    "pk": 58,
    "fields": {
        "name": "\u0e19\u0e32\u0e07\u0e2a\u0e32\u0e27\u0e2a\u0e25\u0e34\u0e28\u0e32 \u0e1e\u0e38\u0e14\u0e0a\u0e39",
        "code": "K002",
        "branch": 11,
        "phone": "082-1450819",
        "address": "",
        "is_enabled": 1
    }
}, {
    "model": "aag_api.staff",
    "pk": 59,
    "fields": {
        "name": "\u0e19\u0e32\u0e07\u0e2a\u0e32\u0e27\u0e1b\u0e23\u0e30\u0e20\u0e31\u0e2a\u0e2a\u0e23 \u0e1b\u0e25\u0e49\u0e2d\u0e07\u0e22\u0e32\u0e07",
        "code": "K003",
        "branch": 11,
        "phone": "087-5611454",
        "address": "",
        "is_enabled": 1
    }
}, {
    "model": "aag_api.staff",
    "pk": 60,
    "fields": {
        "name": "\u0e19\u0e32\u0e07\u0e2a\u0e32\u0e27\u0e1e\u0e07\u0e28\u0e4c\u0e1e\u0e31\u0e0a\u0e23\u0e32 \u0e1e\u0e25\u0e2d\u0e38\u0e17\u0e31\u0e22",
        "code": "K004",
        "branch": 11,
        "phone": "095-4656865",
        "address": "",
        "is_enabled": 1
    }
}, {
    "model": "aag_api.staff",
    "pk": 61,
    "fields": {
        "name": "\u0e19\u0e32\u0e07\u0e2a\u0e32\u0e27\u0e01\u0e32\u0e19\u0e15\u0e4c\u0e1e\u0e34\u0e0a\u0e0a\u0e32 \u0e08\u0e31\u0e19\u0e17\u0e23\u0e4c\u0e17\u0e2d\u0e07",
        "code": "K005",
        "branch": 11,
        "phone": "061-4545887",
        "address": "",
        "is_enabled": 1
    }
}, {
    "model": "aag_api.staff",
    "pk": 62,
    "fields": {
        "name": "\u0e19\u0e32\u0e07\u0e2a\u0e32\u0e27\u0e27\u0e32\u0e2a\u0e19\u0e32 \u0e1a\u0e38\u0e0d\u0e40\u0e01\u0e34\u0e48\u0e07",
        "code": "K006",
        "branch": 11,
        "phone": "064-4262961",
        "address": "",
        "is_enabled": 1
    }
}, {
    "model": "aag_api.staff",
    "pk": 63,
    "fields": {
        "name": "\u0e19\u0e32\u0e07\u0e2a\u0e32\u0e27\u0e19\u0e31\u0e17\u0e15\u0e01\u0e32\u0e23\u0e15\u0e4c \u0e22\u0e32\u0e19\u0e30\u0e1e\u0e31\u0e19\u0e18\u0e4c",
        "code": "K007",
        "branch": 11,
        "phone": "061-6739186",
        "address": "",
        "is_enabled": 1
    }
}]