[{
    "model": "aag_api.branchsetting",
    "pk": 3,
    "fields": {
        "branch": 1,
        "code": "AA",
        "counter": 1,
        "month": 3,
        "interest": "20.00",
        "min_interest": "100.00",
        "is_user_edit_interest": 0,
        "calculate_date": 1,
        "tax_code": "AA",
        "tax_counter": 1
    }
}]