[{
    "model": "aag_api.bank",
    "pk": 1,
    "fields": {
        "name": "\u0e01\u0e23\u0e38\u0e07\u0e28\u0e23\u0e35\u0e2d\u0e22\u0e38\u0e18\u0e22\u0e32",
        "is_enabled": 1
    }
}, {
    "model": "aag_api.bank",
    "pk": 2,
    "fields": {
        "name": "Aeon",
        "is_enabled": 1
    }
}, {
    "model": "aag_api.bank",
    "pk": 3,
    "fields": {
        "name": "\u0e01\u0e2a\u0e34\u0e01\u0e23\u0e44\u0e17\u0e22",
        "is_enabled": 1
    }
}, {
    "model": "aag_api.bank",
    "pk": 4,
    "fields": {
        "name": "\u0e18\u0e19\u0e0a\u0e32\u0e15",
        "is_enabled": 1
    }
}]