[{
    "model": "aag_api.branch",
    "pk": 1,
    "fields": {
        "name": "\u0e25\u0e32\u0e14\u0e01\u0e23\u0e30\u0e1a\u0e31\u0e07",
        "code": "001",
        "description": "",
        "is_enabled": 1
    }
}, {
    "model": "aag_api.branch",
    "pk": 2,
    "fields": {
        "name": "\u0e01\u0e34\u0e48\u0e07\u0e41\u0e01\u0e49\u0e27",
        "code": "002",
        "description": "",
        "is_enabled": 1
    }
}]