[
    {
        "model": "aag_api.stockcategoryitem",
        "pk": 1,
        "fields": {
            "category": 2,
            "stock": 1,
            "branch": 1,
            "user": 2,
            "object_id": "12",
            "weight": "15.200",
            "record_date": "2019-08-20T10:15:10.175Z",
            "kind": "I"
        }
    },
    {
        "model": "aag_api.stockcategoryitem",
        "pk": 2,
        "fields": {
            "category": 3,
            "stock": 2,
            "branch": 1,
            "user": 2,
            "object_id": "13",
            "weight": "15.244",
            "record_date": "2019-08-20T10:15:48.210Z",
            "kind": "I"
        }
    },
    {
        "model": "aag_api.stockcategoryitem",
        "pk": 3,
        "fields": {
            "category": 2,
            "stock": 1,
            "branch": 1,
            "user": 2,
            "object_id": "14",
            "weight": "1.000",
            "record_date": "2019-08-20T10:16:44.383Z",
            "kind": "I"
        }
    }
]