[
    {
        "model": "aag_api.stockcategory",
        "pk": 1,
        "fields": {
            "category": 2,
            "branch": 1,
            "weight": "16.200",
            "in_date": "2019-08-20T10:15:10.172Z",
            "out_date": "2019-08-20T10:15:10.172Z",
            "total": "21342.00"
        }
    },
    {
        "model": "aag_api.stockcategory",
        "pk": 2,
        "fields": {
            "category": 3,
            "branch": 1,
            "weight": "15.244",
            "in_date": "2019-08-20T10:15:48.208Z",
            "out_date": "2019-08-20T10:15:48.208Z",
            "total": "20200.00"
        }
    }
]