[
    {
        "model": "aag_api.lease",
        "pk": 49,
        "fields": {
            "number": "AA00001",
            "bill_date": "2019-10-03",
            "branch": 1,
            "record_date": "2019-10-03T07:27:00.168Z",
            "user": 1,
            "staff": 8,
            "customer": 1,
            "citizen_id": "1111111111111",
            "phone": "0802222222",
            "amount": "4000.00",
            "weight": "9.200",
            "month": 3,
            "interest": "2.00",
            "start_date": "2019-10-03",
            "interest_date": "2019-10-03",
            "end_date": "2020-01-01",
            "close_date": null,
            "out_date": null,
            "status": 1,
            "total_interest": "0.00",
            "description": "",
            "is_enabled": 1,
            "status_stock": "N"
        }
    },
    {
        "model": "aag_api.lease",
        "pk": 50,
        "fields": {
            "number": "AB00001",
            "bill_date": "2019-10-03",
            "branch": 2,
            "record_date": "2019-10-03T07:27:34.578Z",
            "user": 1,
            "staff": 18,
            "customer": 1,
            "citizen_id": "1111111111111",
            "phone": "0123456788",
            "amount": "5000.00",
            "weight": "9.200",
            "month": 3,
            "interest": "2.00",
            "start_date": "2019-10-03",
            "interest_date": "2019-10-03",
            "end_date": "2020-01-01",
            "close_date": null,
            "out_date": null,
            "status": 1,
            "total_interest": "0.00",
            "description": "",
            "is_enabled": 1,
            "status_stock": "N"
        }
    }
]