[{
    "model": "aag_api.userprofile",
    "pk": 1,
    "fields": {
        "staff": null,
        "user": 1,
        "role": "A",
        "branch": 1
    }
}, {
    "model": "aag_api.userprofile",
    "pk": 2,
    "fields": {
        "staff": 8,
        "user": 2,
        "role": "U",
        "branch": 1
    }
}]