[{
        "model": "mapi.provinces",
        "pk": "1",
        "fields": {
            "code": "10",
            "name": "กรุงเทพมหานคร   ",
            "name_eng": "Bangkok",
            "geo_id": "2"
        }
    },
    {
        "model": "mapi.provinces",
        "pk": "2",
        "fields": {
            "code": "11",
            "name": "สมุทรปราการ   ",
            "name_eng": "Samut Prakan",
            "geo_id": "2"
        }
    },
    {
        "model": "mapi.provinces",
        "pk": "3",
        "fields": {
            "code": "12",
            "name": "นนทบุรี   ",
            "name_eng": "Nonthaburi",
            "geo_id": "2"
        }
    },
    {
        "model": "mapi.provinces",
        "pk": "4",
        "fields": {
            "code": "13",
            "name": "ปทุมธานี   ",
            "name_eng": "Pathum Thani",
            "geo_id": "2"
        }
    },
    {
        "model": "mapi.provinces",
        "pk": "5",
        "fields": {
            "code": "14",
            "name": "พระนครศรีอยุธยา   ",
            "name_eng": "Phra Nakhon Si Ayutthaya",
            "geo_id": "2"
        }
    },
    {
        "model": "mapi.provinces",
        "pk": "6",
        "fields": {
            "code": "15",
            "name": "อ่างทอง   ",
            "name_eng": "Ang Thong",
            "geo_id": "2"
        }
    },
    {
        "model": "mapi.provinces",
        "pk": "7",
        "fields": {
            "code": "16",
            "name": "ลพบุรี   ",
            "name_eng": "Loburi",
            "geo_id": "2"
        }
    },
    {
        "model": "mapi.provinces",
        "pk": "8",
        "fields": {
            "code": "17",
            "name": "สิงห์บุรี   ",
            "name_eng": "Sing Buri",
            "geo_id": "2"
        }
    },
    {
        "model": "mapi.provinces",
        "pk": "9",
        "fields": {
            "code": "18",
            "name": "ชัยนาท   ",
            "name_eng": "Chai Nat",
            "geo_id": "2"
        }
    },
    {
        "model": "mapi.provinces",
        "pk": "10",
        "fields": {
            "code": "19",
            "name": "สระบุรี",
            "name_eng": "Saraburi",
            "geo_id": "2"
        }
    },
    {
        "model": "mapi.provinces",
        "pk": "11",
        "fields": {
            "code": "20",
            "name": "ชลบุรี   ",
            "name_eng": "Chon Buri",
            "geo_id": "5"
        }
    },
    {
        "model": "mapi.provinces",
        "pk": "12",
        "fields": {
            "code": "21",
            "name": "ระยอง   ",
            "name_eng": "Rayong",
            "geo_id": "5"
        }
    },
    {
        "model": "mapi.provinces",
        "pk": "13",
        "fields": {
            "code": "22",
            "name": "จันทบุรี   ",
            "name_eng": "Chanthaburi",
            "geo_id": "5"
        }
    },
    {
        "model": "mapi.provinces",
        "pk": "14",
        "fields": {
            "code": "23",
            "name": "ตราด   ",
            "name_eng": "Trat",
            "geo_id": "5"
        }
    },
    {
        "model": "mapi.provinces",
        "pk": "15",
        "fields": {
            "code": "24",
            "name": "ฉะเชิงเทรา   ",
            "name_eng": "Chachoengsao",
            "geo_id": "5"
        }
    },
    {
        "model": "mapi.provinces",
        "pk": "16",
        "fields": {
            "code": "25",
            "name": "ปราจีนบุรี   ",
            "name_eng": "Prachin Buri",
            "geo_id": "5"
        }
    },
    {
        "model": "mapi.provinces",
        "pk": "17",
        "fields": {
            "code": "26",
            "name": "นครนายก   ",
            "name_eng": "Nakhon Nayok",
            "geo_id": "2"
        }
    },
    {
        "model": "mapi.provinces",
        "pk": "18",
        "fields": {
            "code": "27",
            "name": "สระแก้ว   ",
            "name_eng": "Sa Kaeo",
            "geo_id": "5"
        }
    },
    {
        "model": "mapi.provinces",
        "pk": "19",
        "fields": {
            "code": "30",
            "name": "นครราชสีมา   ",
            "name_eng": "Nakhon Ratchasima",
            "geo_id": "3"
        }
    },
    {
        "model": "mapi.provinces",
        "pk": "20",
        "fields": {
            "code": "31",
            "name": "บุรีรัมย์   ",
            "name_eng": "Buri Ram",
            "geo_id": "3"
        }
    },
    {
        "model": "mapi.provinces",
        "pk": "21",
        "fields": {
            "code": "32",
            "name": "สุรินทร์   ",
            "name_eng": "Surin",
            "geo_id": "3"
        }
    },
    {
        "model": "mapi.provinces",
        "pk": "22",
        "fields": {
            "code": "33",
            "name": "ศรีสะเกษ   ",
            "name_eng": "Si Sa Ket",
            "geo_id": "3"
        }
    },
    {
        "model": "mapi.provinces",
        "pk": "23",
        "fields": {
            "code": "34",
            "name": "อุบลราชธานี   ",
            "name_eng": "Ubon Ratchathani",
            "geo_id": "3"
        }
    },
    {
        "model": "mapi.provinces",
        "pk": "24",
        "fields": {
            "code": "35",
            "name": "ยโสธร   ",
            "name_eng": "Yasothon",
            "geo_id": "3"
        }
    },
    {
        "model": "mapi.provinces",
        "pk": "25",
        "fields": {
            "code": "36",
            "name": "ชัยภูมิ   ",
            "name_eng": "Chaiyaphum",
            "geo_id": "3"
        }
    },
    {
        "model": "mapi.provinces",
        "pk": "26",
        "fields": {
            "code": "37",
            "name": "อำนาจเจริญ   ",
            "name_eng": "Amnat Charoen",
            "geo_id": "3"
        }
    },
    {
        "model": "mapi.provinces",
        "pk": "27",
        "fields": {
            "code": "39",
            "name": "หนองบัวลำภู   ",
            "name_eng": "Nong Bua Lam Phu",
            "geo_id": "3"
        }
    },
    {
        "model": "mapi.provinces",
        "pk": "28",
        "fields": {
            "code": "40",
            "name": "ขอนแก่น   ",
            "name_eng": "Khon Kaen",
            "geo_id": "3"
        }
    },
    {
        "model": "mapi.provinces",
        "pk": "29",
        "fields": {
            "code": "41",
            "name": "อุดรธานี   ",
            "name_eng": "Udon Thani",
            "geo_id": "3"
        }
    },
    {
        "model": "mapi.provinces",
        "pk": "30",
        "fields": {
            "code": "42",
            "name": "เลย   ",
            "name_eng": "Loei",
            "geo_id": "3"
        }
    },
    {
        "model": "mapi.provinces",
        "pk": "31",
        "fields": {
            "code": "43",
            "name": "หนองคาย   ",
            "name_eng": "Nong Khai",
            "geo_id": "3"
        }
    },
    {
        "model": "mapi.provinces",
        "pk": "32",
        "fields": {
            "code": "44",
            "name": "มหาสารคาม   ",
            "name_eng": "Maha Sarakham",
            "geo_id": "3"
        }
    },
    {
        "model": "mapi.provinces",
        "pk": "33",
        "fields": {
            "code": "45",
            "name": "ร้อยเอ็ด   ",
            "name_eng": "Roi Et",
            "geo_id": "3"
        }
    },
    {
        "model": "mapi.provinces",
        "pk": "34",
        "fields": {
            "code": "46",
            "name": "กาฬสินธุ์   ",
            "name_eng": "Kalasin",
            "geo_id": "3"
        }
    },
    {
        "model": "mapi.provinces",
        "pk": "35",
        "fields": {
            "code": "47",
            "name": "สกลนคร   ",
            "name_eng": "Sakon Nakhon",
            "geo_id": "3"
        }
    },
    {
        "model": "mapi.provinces",
        "pk": "36",
        "fields": {
            "code": "48",
            "name": "นครพนม   ",
            "name_eng": "Nakhon Phanom",
            "geo_id": "3"
        }
    },
    {
        "model": "mapi.provinces",
        "pk": "37",
        "fields": {
            "code": "49",
            "name": "มุกดาหาร   ",
            "name_eng": "Mukdahan",
            "geo_id": "3"
        }
    },
    {
        "model": "mapi.provinces",
        "pk": "38",
        "fields": {
            "code": "50",
            "name": "เชียงใหม่   ",
            "name_eng": "Chiang Mai",
            "geo_id": "1"
        }
    },
    {
        "model": "mapi.provinces",
        "pk": "39",
        "fields": {
            "code": "51",
            "name": "ลำพูน   ",
            "name_eng": "Lamphun",
            "geo_id": "1"
        }
    },
    {
        "model": "mapi.provinces",
        "pk": "40",
        "fields": {
            "code": "52",
            "name": "ลำปาง   ",
            "name_eng": "Lampang",
            "geo_id": "1"
        }
    },
    {
        "model": "mapi.provinces",
        "pk": "41",
        "fields": {
            "code": "53",
            "name": "อุตรดิตถ์   ",
            "name_eng": "Uttaradit",
            "geo_id": "1"
        }
    },
    {
        "model": "mapi.provinces",
        "pk": "42",
        "fields": {
            "code": "54",
            "name": "แพร่   ",
            "name_eng": "Phrae",
            "geo_id": "1"
        }
    },
    {
        "model": "mapi.provinces",
        "pk": "43",
        "fields": {
            "code": "55",
            "name": "น่าน   ",
            "name_eng": "Nan",
            "geo_id": "1"
        }
    },
    {
        "model": "mapi.provinces",
        "pk": "44",
        "fields": {
            "code": "56",
            "name": "พะเยา   ",
            "name_eng": "Phayao",
            "geo_id": "1"
        }
    },
    {
        "model": "mapi.provinces",
        "pk": "45",
        "fields": {
            "code": "57",
            "name": "เชียงราย   ",
            "name_eng": "Chiang Rai",
            "geo_id": "1"
        }
    },
    {
        "model": "mapi.provinces",
        "pk": "46",
        "fields": {
            "code": "58",
            "name": "แม่ฮ่องสอน   ",
            "name_eng": "Mae Hong Son",
            "geo_id": "1"
        }
    },
    {
        "model": "mapi.provinces",
        "pk": "47",
        "fields": {
            "code": "60",
            "name": "นครสวรรค์   ",
            "name_eng": "Nakhon Sawan",
            "geo_id": "2"
        }
    },
    {
        "model": "mapi.provinces",
        "pk": "48",
        "fields": {
            "code": "61",
            "name": "อุทัยธานี   ",
            "name_eng": "Uthai Thani",
            "geo_id": "2"
        }
    },
    {
        "model": "mapi.provinces",
        "pk": "49",
        "fields": {
            "code": "62",
            "name": "กำแพงเพชร   ",
            "name_eng": "Kamphaeng Phet",
            "geo_id": "2"
        }
    },
    {
        "model": "mapi.provinces",
        "pk": "50",
        "fields": {
            "code": "63",
            "name": "ตาก   ",
            "name_eng": "Tak",
            "geo_id": "4"
        }
    },
    {
        "model": "mapi.provinces",
        "pk": "51",
        "fields": {
            "code": "64",
            "name": "สุโขทัย   ",
            "name_eng": "Sukhothai",
            "geo_id": "2"
        }
    },
    {
        "model": "mapi.provinces",
        "pk": "52",
        "fields": {
            "code": "65",
            "name": "พิษณุโลก   ",
            "name_eng": "Phitsanulok",
            "geo_id": "2"
        }
    },
    {
        "model": "mapi.provinces",
        "pk": "53",
        "fields": {
            "code": "66",
            "name": "พิจิตร   ",
            "name_eng": "Phichit",
            "geo_id": "2"
        }
    },
    {
        "model": "mapi.provinces",
        "pk": "54",
        "fields": {
            "code": "67",
            "name": "เพชรบูรณ์   ",
            "name_eng": "Phetchabun",
            "geo_id": "2"
        }
    },
    {
        "model": "mapi.provinces",
        "pk": "55",
        "fields": {
            "code": "70",
            "name": "ราชบุรี   ",
            "name_eng": "Ratchaburi",
            "geo_id": "4"
        }
    },
    {
        "model": "mapi.provinces",
        "pk": "56",
        "fields": {
            "code": "71",
            "name": "กาญจนบุรี   ",
            "name_eng": "Kanchanaburi",
            "geo_id": "4"
        }
    },
    {
        "model": "mapi.provinces",
        "pk": "57",
        "fields": {
            "code": "72",
            "name": "สุพรรณบุรี   ",
            "name_eng": "Suphan Buri",
            "geo_id": "2"
        }
    },
    {
        "model": "mapi.provinces",
        "pk": "58",
        "fields": {
            "code": "73",
            "name": "นครปฐม   ",
            "name_eng": "Nakhon Pathom",
            "geo_id": "2"
        }
    },
    {
        "model": "mapi.provinces",
        "pk": "59",
        "fields": {
            "code": "74",
            "name": "สมุทรสาคร   ",
            "name_eng": "Samut Sakhon",
            "geo_id": "2"
        }
    },
    {
        "model": "mapi.provinces",
        "pk": "60",
        "fields": {
            "code": "75",
            "name": "สมุทรสงคราม   ",
            "name_eng": "Samut Songkhram",
            "geo_id": "2"
        }
    },
    {
        "model": "mapi.provinces",
        "pk": "61",
        "fields": {
            "code": "76",
            "name": "เพชรบุรี   ",
            "name_eng": "Phetchaburi",
            "geo_id": "4"
        }
    },
    {
        "model": "mapi.provinces",
        "pk": "62",
        "fields": {
            "code": "77",
            "name": "ประจวบคีรีขันธ์   ",
            "name_eng": "Prachuap Khiri Khan",
            "geo_id": "4"
        }
    },
    {
        "model": "mapi.provinces",
        "pk": "63",
        "fields": {
            "code": "80",
            "name": "นครศรีธรรมราช   ",
            "name_eng": "Nakhon Si Thammarat",
            "geo_id": "6"
        }
    },
    {
        "model": "mapi.provinces",
        "pk": "64",
        "fields": {
            "code": "81",
            "name": "กระบี่   ",
            "name_eng": "Krabi",
            "geo_id": "6"
        }
    },
    {
        "model": "mapi.provinces",
        "pk": "65",
        "fields": {
            "code": "82",
            "name": "พังงา   ",
            "name_eng": "Phangnga",
            "geo_id": "6"
        }
    },
    {
        "model": "mapi.provinces",
        "pk": "66",
        "fields": {
            "code": "83",
            "name": "ภูเก็ต   ",
            "name_eng": "Phuket",
            "geo_id": "6"
        }
    },
    {
        "model": "mapi.provinces",
        "pk": "67",
        "fields": {
            "code": "84",
            "name": "สุราษฎร์ธานี   ",
            "name_eng": "Surat Thani",
            "geo_id": "6"
        }
    },
    {
        "model": "mapi.provinces",
        "pk": "68",
        "fields": {
            "code": "85",
            "name": "ระนอง   ",
            "name_eng": "Ranong",
            "geo_id": "6"
        }
    },
    {
        "model": "mapi.provinces",
        "pk": "69",
        "fields": {
            "code": "86",
            "name": "ชุมพร   ",
            "name_eng": "Chumphon",
            "geo_id": "6"
        }
    },
    {
        "model": "mapi.provinces",
        "pk": "70",
        "fields": {
            "code": "90",
            "name": "สงขลา   ",
            "name_eng": "Songkhla",
            "geo_id": "6"
        }
    },
    {
        "model": "mapi.provinces",
        "pk": "71",
        "fields": {
            "code": "91",
            "name": "สตูล   ",
            "name_eng": "Satun",
            "geo_id": "6"
        }
    },
    {
        "model": "mapi.provinces",
        "pk": "72",
        "fields": {
            "code": "92",
            "name": "ตรัง   ",
            "name_eng": "Trang",
            "geo_id": "6"
        }
    },
    {
        "model": "mapi.provinces",
        "pk": "73",
        "fields": {
            "code": "93",
            "name": "พัทลุง   ",
            "name_eng": "Phatthalung",
            "geo_id": "6"
        }
    },
    {
        "model": "mapi.provinces",
        "pk": "74",
        "fields": {
            "code": "94",
            "name": "ปัตตานี   ",
            "name_eng": "Pattani",
            "geo_id": "6"
        }
    },
    {
        "model": "mapi.provinces",
        "pk": "75",
        "fields": {
            "code": "95",
            "name": "ยะลา   ",
            "name_eng": "Yala",
            "geo_id": "6"
        }
    },
    {
        "model": "mapi.provinces",
        "pk": "76",
        "fields": {
            "code": "96",
            "name": "นราธิวาส   ",
            "name_eng": "Narathiwat",
            "geo_id": "6"
        }
    },
    {
        "model": "mapi.provinces",
        "pk": "77",
        "fields": {
            "code": "97",
            "name": "บึงกาฬ",
            "name_eng": "buogkan",
            "geo_id": "3"
        }
    }
]